ece5723midterm/problem3/largerTBtest.vcd
$date
     Nov 04, 2021       23:39:36
$end

$version
 SystemC 2.3.3-Accellera --- Sep 29 2021 23:05:33
$end

$timescale
     1 ps
$end

$scope module SystemC $end
$var wire    1  aaaaa  rst       $end
$var wire    1  aaaab  clk       $end
$var wire    1  aaaac  start       $end
$var wire    1  aaaad  stop       $end
$var wire    8  aaaae  inBus [7:0]  $end
$var wire    8  aaaaf  outBus [7:0]  $end
$upscope $end
$enddefinitions  $end

$comment
All initial values are dumped below at time 0 sec = 0 timescale units.
$end

$dumpvars
xaaaaa
0aaaab
0aaaac
0aaaad
b0 aaaae
bXXXXXXXX aaaaf
$end

#7000
0aaaaa

#18000
1aaaaa

#22000
0aaaaa

#50000
1aaaab

#100000
0aaaab
1aaaac

#150000
1aaaab
bZZZZZZZZ aaaaf

#200000
0aaaab
0aaaac

#250000
1aaaab

#300000
0aaaab
b10000100 aaaae

#350000
1aaaab

#400000
0aaaab

#450000
1aaaab

#500000
0aaaab
b1010 aaaae

#550000
1aaaab

#600000
0aaaab

#650000
1aaaab

#700000
0aaaab

#750000
1aaaab
b10000 aaaae

#800000
0aaaab

#850000
1aaaab

#900000
0aaaab

#950000
1aaaab

#1000000
0aaaab

#1050000
1aaaab

#1100000
0aaaab
1aaaad

#1150000
1aaaab

#1200000
0aaaab
0aaaad

#1250000
1aaaab

#1300000
0aaaab

#1350000
1aaaab
b10000100 aaaaf

#1400000
0aaaab

#1450000
1aaaab

#1500000
0aaaab

#1550000
1aaaab

#1600000
0aaaab

#1650000
1aaaab

#1700000
0aaaab

#1750000
1aaaab

#1800000
0aaaab

#1850000
1aaaab

#1900000
0aaaab

#1950000
1aaaab

#2000000
0aaaab

#2050000
1aaaab

#2100000
0aaaab

#2150000
1aaaab

#2200000
0aaaab

#2250000
1aaaab

#2300000
0aaaab

#2350000
1aaaab

#2400000
0aaaab

#2450000
1aaaab

#2500000
0aaaab

#2550000
1aaaab

#2600000
0aaaab

#2650000
1aaaab

#2700000
0aaaab
b100 aaaae

#2750000
1aaaab

#2800000
0aaaab
1aaaac

#2850000
1aaaab
bZZZZZZZZ aaaaf

#2900000
0aaaab
0aaaac

#2950000
1aaaab

#3000000
0aaaab
b1000 aaaae

#3050000
1aaaab

#3100000
0aaaab

#3150000
1aaaab

#3200000
0aaaab
b1 aaaae

#3250000
1aaaab

#3300000
0aaaab

#3350000
1aaaab

#3400000
0aaaab

#3450000
1aaaab
b10 aaaae

#3500000
0aaaab

#3550000
1aaaab

#3600000
0aaaab

#3650000
1aaaab

#3700000
0aaaab

#3750000
1aaaab

#3800000
0aaaab
1aaaad

#3850000
1aaaab

#3900000
0aaaab
0aaaad

#3950000
1aaaab

#4000000
0aaaab

#4050000
1aaaab
b10000100 aaaaf

